_RC0 38 0 ABS 0
_RC1 39 0 ABS 0
__S0 2008 0 ABS 0
__S1 24 0 ABS 0
__S2 0 0 ABS 0
_GIE 5F 0 ABS 0
_ISR 16 0 CODE 0
__Hintentry 11 0 CODE 0
__Lintentry 4 0 CODE 0
__CFG_BOREN$ON 0 0 ABS 0
__pintentry 4 0 CODE 0
_INTE 5C 0 ABS 0
_INTF 59 0 ABS 0
_main 3B 0 CODE 0
___sp 0 0 STACK 2
_Init 2E 0 CODE 0
btemp 7E 0 ABS 0
start 11 0 CODE 0
reset_vec 0 0 CODE 0
wtemp0 7E 0 ABS 0
interrupt_function 4 0 CODE 0
__Hconfig 2008 0 CONFIG 0
__Lconfig 2007 0 CONFIG 0
__Hram 0 0 ABS 0
__Lram 0 0 ABS 0
__end_of_ISR 2E 0 CODE 0
__Hfunctab 0 0 CODE 0
_TRISC0 438 0 ABS 0
__Lfunctab 0 0 CODE 0
_TRISC1 439 0 ABS 0
__Hcommon 0 0 ABS 0
__Lcommon 0 0 ABS 0
__Heeprom_data 0 0 EEDATA 3
__Leeprom_data 0 0 EEDATA 3
___int_sp 0 0 STACK 2
_INTEDG 40E 0 ABS 0
__Habs1 0 0 ABS 0
__Labs1 0 0 ABS 0
__Hsfr0 0 0 ABS 0
__Lsfr0 0 0 ABS 0
__Hsfr1 0 0 ABS 0
__Lsfr1 0 0 ABS 0
__Hsfr2 0 0 ABS 0
__Lsfr2 0 0 ABS 0
__Hsfr3 0 0 ABS 0
__Lsfr3 0 0 ABS 0
__Hcode 0 0 ABS 0
__Lcode 0 0 ABS 0
stackhi 0 0 ABS 0
__HcstackBANK0 0 0 ABS 0
__LcstackBANK0 0 0 ABS 0
__pcstackBANK0 20 0 BANK0 1
stacklo 0 0 ABS 0
saved_w 7E 0 ABS 0
__Hinit 11 0 CODE 0
__Linit 11 0 CODE 0
__end_of_main 3F 0 CODE 0
__Htext 0 0 ABS 0
__Ltext 0 0 ABS 0
end_of_initialization 13 0 CODE 0
__size_of_ISR 0 0 ABS 0
__Hstrings 0 0 ABS 0
__Lstrings 0 0 ABS 0
__Hbank0 0 0 ABS 0
__Lbank0 0 0 ABS 0
__Hbank1 0 0 ABS 0
__Lbank1 0 0 ABS 0
__Hbank2 0 0 BANK2 1
__Lbank2 0 0 BANK2 1
__Hbank3 0 0 BANK3 1
__Lbank3 0 0 BANK3 1
___latbits 1 0 ABS 0
__size_of_Init 0 0 ABS 0
__Hpowerup 0 0 CODE 0
__Lpowerup 0 0 CODE 0
__ptext1 2E 0 CODE 0
__ptext2 16 0 CODE 0
__Hclrtext 0 0 ABS 0
__Lclrtext 0 0 ABS 0
__end_of__initialization 13 0 CODE 0
__Hidloc 0 0 IDLOC 0
__Lidloc 0 0 IDLOC 0
__Hstack 0 0 STACK 2
__Lstack 0 0 STACK 2
__Hspace_0 2008 0 ABS 0
__Lspace_0 0 0 ABS 0
__Hspace_1 24 0 ABS 0
__Lspace_1 0 0 ABS 0
__Hspace_2 0 0 ABS 0
__Lspace_2 0 0 ABS 0
__Hcinit 16 0 CODE 0
__Lcinit 13 0 CODE 0
__CFG_FOSC$HS 0 0 ABS 0
__Hspace_3 0 0 ABS 0
__Lspace_3 0 0 ABS 0
__size_of_main 0 0 ABS 0
__end_of_Init 3B 0 CODE 0
__CFG_PWRTE$OFF 0 0 ABS 0
__Hend_init 13 0 CODE 0
__Lend_init 11 0 CODE 0
__Hreset_vec 2 0 CODE 0
__Lreset_vec 0 0 CODE 0
intlevel0 0 0 CODE 0
__CFG_WDTE$OFF 0 0 ABS 0
intlevel1 0 0 CODE 0
intlevel2 0 0 CODE 0
intlevel3 0 0 CODE 0
intlevel4 0 0 CODE 0
intlevel5 0 0 CODE 0
__HcstackCOMMON 0 0 ABS 0
__LcstackCOMMON 0 0 ABS 0
__pcstackCOMMON 0 0 COMMON 1
start_initialization 13 0 CODE 0
__Hmaintext 0 0 ABS 0
__Lmaintext 0 0 ABS 0
__pmaintext 3B 0 CODE 0
__initialization 13 0 CODE 0
__CFG_CP$OFF 0 0 ABS 0
%segments
reset_vec 0 3 CODE 0 0
intentry 8 7D CODE 8 0
config 400E 400F CONFIG 400E 0
cstackBANK0 20 23 BANK0 20 1
%locals
dist/default/production\project.X.production.obj
C:\Users\Tom\AppData\Local\Temp\s5k4.
163 13 0 CODE 0
166 13 0 CODE 0
172 13 0 CODE 0
174 13 0 CODE 0
175 14 0 CODE 0
main.c
18 3B 0 CODE 0
19 3B 0 CODE 0
21 3E 0 CODE 0
24 2E 0 CODE 0
26 2E 0 CODE 0
28 2F 0 CODE 0
30 30 0 CODE 0
33 31 0 CODE 0
36 34 0 CODE 0
37 35 0 CODE 0
39 36 0 CODE 0
40 39 0 CODE 0
41 3A 0 CODE 0
44 16 0 CODE 0
45 16 0 CODE 0
47 1E 0 CODE 0
49 1F 0 CODE 0
50 21 0 CODE 0
52 23 0 CODE 0
44 4 0 CODE 0
