___lldiv@counter 2D 0 BANK0 1
esp8266_sendData@data 29 0 BANK0 1
_esp8266_readResponse 74F 0 CODE 0
_RB0 30 0 ABS 0
_RC0 38 0 ABS 0
_RB1 31 0 ABS 0
_RC1 39 0 ABS 0
_RB2 32 0 ABS 0
_RB3 33 0 ABS 0
_RB4 34 0 ABS 0
_RB5 35 0 ABS 0
__S0 2008 0 ABS 0
_esp8266_readServerResponse 377 0 CODE 0
__S1 76 0 ABS 0
__S2 0 0 ABS 0
__size_of_esp8266_sendData 0 0 ABS 0
__Hintentry 0 0 CODE 0
__Lintentry 0 0 CODE 0
esp8266_readResponse@strings 44 0 BANK0 1
__size_of_Initialize_ESP8266 0 0 ABS 0
lcdSetCursor@b 27 0 BANK0 1
_RCIF 65 0 ABS 0
_BRGH 4C2 0 ABS 0
_SYNC 4C4 0 ABS 0
_CREN C4 0 ABS 0
_SPEN C7 0 ABS 0
_TXEN 4C5 0 ABS 0
_TRMT 4C1 0 ABS 0
esp8266_readResponse@responseCnt 48 0 BANK0 1
_lcdWriteChar 401 0 CODE 0
esp8266_readResponse@lengths 14 0 STRING 0
_main 5C5 0 CODE 0
___sp 0 0 STACK 2
_Init 582 0 CODE 0
btemp 7E 0 ABS 0
start 0 0 CODE 0
__end_of_usartWrite 310 0 CODE 0
_RCREG 1A 0 ABS 0
_TXREG 19 0 ABS 0
reset_vec 0 0 CODE 0
_SPBRG 99 0 ABS 0
__size_of_ledShortBlink 0 0 ABS 0
wtemp0 7E 0 ABS 0
esp8266_readResponse@so_far 49 0 BANK0 1
_esp8266_readServerResponse_ 4D6 0 CODE 0
__Hconfig 2008 0 CONFIG 0
__Lconfig 2007 0 CONFIG 0
__end_of__stringtab 12 0 STRING 0
Init@i 23 0 BANK0 1
__size_of_lcdCmd 0 0 ABS 0
_lcdClear 2EA 0 CODE 0
__Hram 0 0 ABS 0
__Lram 0 0 ABS 0
__end_of_usartDataReady 2EA 0 CODE 0
lcdCmd@cmd 26 0 BANK0 1
lcdWriteString@a 27 0 BANK0 1
_TRISB0 430 0 ABS 0
__Hfunctab 0 0 ENTRY 0
_TRISC0 438 0 ABS 0
__Lfunctab 0 0 ENTRY 0
_TRISB1 431 0 ABS 0
_TRISC1 439 0 ABS 0
_TRISB2 432 0 ABS 0
_TRISB3 433 0 ABS 0
_TRISB4 434 0 ABS 0
_TRISB5 435 0 ABS 0
_TRISC6 43E 0 ABS 0
_TRISC7 43F 0 ABS 0
lcdWriteChar@x 24 0 BANK0 1
__Hcommon 0 0 ABS 0
__Lcommon 0 0 ABS 0
__Heeprom_data 0 0 EEDATA 3
__Leeprom_data 0 0 EEDATA 3
_tmpResponse 68 0 BANK0 1
___int_sp 0 0 STACK 2
?_esp8266_readServerResponse 25 0 BANK0 1
?___lldiv 20 0 BANK0 1
_lcdStrobe 310 0 CODE 0
__Habs1 0 0 ABS 0
__Labs1 0 0 ABS 0
__Hsfr0 0 0 ABS 0
__Lsfr0 0 0 ABS 0
__Hsfr1 0 0 ABS 0
__Lsfr1 0 0 ABS 0
__Hsfr2 0 0 ABS 0
__Lsfr2 0 0 ABS 0
__Hsfr3 0 0 ABS 0
__Lsfr3 0 0 ABS 0
esp8266_readResponse@received 4D 0 BANK0 1
__end_of_esp8266_readServerResponse 390 0 CODE 0
__end_of_esp8266_startConnection 4A6 0 CODE 0
lcdWriteChar@a 26 0 BANK0 1
__end_of_esp8266_readServerResponse_ 50B 0 CODE 0
esp8266_readServerResponse_@received 24 0 BANK0 1
__end_of_lcdSetCursor 35F 0 CODE 0
_lcdCmd 546 0 CODE 0
__Hcode 0 0 ABS 0
__Lcode 0 0 ABS 0
stackhi 0 0 ABS 0
_esp8266_sendCommand 3AA 0 CODE 0
__HcstackBANK0 0 0 ABS 0
__LcstackBANK0 0 0 ABS 0
__pcstackBANK0 20 0 BANK0 1
stacklo 0 0 ABS 0
__size_of_lcdSetCursor 0 0 ABS 0
_strcmp 44F 0 CODE 0
__Hinit 0 0 CODE 0
__Linit 0 0 CODE 0
__end_of_main 61B 0 CODE 0
__size_of_lcdWriteString 0 0 ABS 0
__Htext 0 0 ABS 0
__Ltext 0 0 ABS 0
__size_of_esp8266_isStarted 0 0 ABS 0
esp8266_readServerResponse_@response 22 0 BANK0 1
__HdataBANK0 0 0 ABS 0
__LdataBANK0 0 0 ABS 0
__pdataBANK0 74 0 BANK0 1
end_of_initialization 7FD 0 CODE 0
esp8266_startConnection@port 53 0 BANK0 1
__end_of_lcdStrobe 322 0 CODE 0
__size_of_usartWrite 0 0 ABS 0
__stringtab 2 0 STRING 0
lcdWriteChar@y 25 0 BANK0 1
usartInit@baudRate 2E 0 BANK0 1
_usartInit 67B 0 CODE 0
_lcdSetCursor 349 0 CODE 0
__Hstrings 0 0 ABS 0
__Lstrings 0 0 ABS 0
__pstrings 2 0 STRING 0
__end_of_usartWriteText 401 0 CODE 0
__end_of_serverResponseCallback 349 0 CODE 0
__end_ofesp8266_readResponse@lengths 16 0 STRING 0
_usartWriteText 3E1 0 CODE 0
esp8266_readResponse@responseCode 46 0 BANK0 1
__size_of_esp8266_readServerResponse 0 0 ABS 0
__Hbank0 0 0 ABS 0
__Lbank0 0 0 ABS 0
__Hbank1 0 0 ABS 0
__Lbank1 0 0 ABS 0
__Hbank2 0 0 BANK2 1
__Lbank2 0 0 BANK2 1
__Hbank3 0 0 BANK3 1
__Lbank3 0 0 BANK3 1
___latbits 1 0 ABS 0
__size_of_Init 0 0 ABS 0
__Hpowerup 0 0 CODE 0
__Lpowerup 0 0 CODE 0
_esp8266_sendData 3C5 0 CODE 0
__end_of_esp8266_sendCommand 3C5 0 CODE 0
ledShortBlink@i 23 0 BANK0 1
__ptext1 335 0 CODE 0
_usartDataReady 2E4 0 CODE 0
__size_of_esp8266_readServerResponse_ 0 0 ABS 0
__ptext2 44F 0 CODE 0
__ptext3 426 0 CODE 0
__ptext4 6E5 0 CODE 0
__ptext5 479 0 CODE 0
esp8266_readResponse@responseI 43 0 BANK0 1
__ptext6 3AA 0 CODE 0
__ptext7 3C5 0 CODE 0
__ptext8 377 0 CODE 0
_serverResponse 5C 0 BANK0 1
__ptext9 4D6 0 CODE 0
__Hclrtext 0 0 ABS 0
__Lclrtext 0 0 ABS 0
__end_of_lcdClear 2F2 0 CODE 0
_esp8266_startConnection 479 0 CODE 0
__end_of_ledShortBlink 44F 0 CODE 0
__size_of_lcdClear 0 0 ABS 0
__end_of_strcmp 479 0 CODE 0
__end_of__initialization 7FD 0 CODE 0
__size_of_usartDataRead 0 0 ABS 0
__end_of_usartInit 6E5 0 CODE 0
usartWriteText@text 23 0 BANK0 1
strcmp@r 24 0 BANK0 1
lcdCmd@x 24 0 BANK0 1
esp8266_sendCommand@command 52 0 BANK0 1
lcdCmd@y 25 0 BANK0 1
__Hidloc 0 0 IDLOC 0
__Lidloc 0 0 IDLOC 0
_usartWrite 304 0 CODE 0
__Hstack 0 0 STACK 2
__Lstack 0 0 STACK 2
_lcdEcho 322 0 CODE 0
esp8266_readServerResponse_@responseCnt 23 0 BANK0 1
__end_of___lldiv 67B 0 CODE 0
__end_of_lcdCmd 582 0 CODE 0
__size_of_esp8266_sendCommand 0 0 ABS 0
__Hspace_0 2008 0 ABS 0
__Lspace_0 0 0 ABS 0
__Hspace_1 76 0 ABS 0
__Lspace_1 0 0 ABS 0
__size_of_esp8266_readResponse 0 0 ABS 0
esp8266_readServerResponse@i 27 0 BANK0 1
esp8266_startConnection@response 56 0 BANK0 1
_lcdInit 6E5 0 CODE 0
__Hspace_2 0 0 ABS 0
?_strcmp 20 0 BANK0 1
__Lspace_2 0 0 ABS 0
__Hcinit 800 0 CODE 0
__Lcinit 7EF 0 CODE 0
__CFG_FOSC$HS 0 0 ABS 0
___lldiv 61B 0 CODE 0
__Hspace_3 0 0 ABS 0
__Lspace_3 0 0 ABS 0
_lcdPort 35F 0 CODE 0
__size_of_main 0 0 ABS 0
usartWrite@data 20 0 BANK0 1
_ledShortBlink 426 0 CODE 0
usartInit@brgh 32 0 BANK0 1
esp8266_readResponse@F1012 74 0 BANK0 1
__HidataBANK0 0 0 ABS 0
__LidataBANK0 0 0 ABS 0
__pidataBANK0 2E2 0 CODE 0
__end_of_lcdPort 377 0 CODE 0
clear_ram0 2F2 0 CODE 0
esp8266_readResponse@i 4B 0 BANK0 1
lcdWriteString@i 2C 0 BANK0 1
__end_of_esp8266_sendData 3E1 0 CODE 0
__HbssBANK0 0 0 ABS 0
__LbssBANK0 0 0 ABS 0
__pbssBANK0 5A 0 BANK0 1
_esp8266_isStarted 4A6 0 CODE 0
esp8266_readResponse@responses 12 0 STRING 0
__size_of_usartInit 0 0 ABS 0
__size_of_lcdPort 0 0 ABS 0
esp8266_readResponse@F1009 5A 0 BANK0 1
__ptext10 4A6 0 CODE 0
__ptext20 50B 0 CODE 0
__ptext11 390 0 CODE 0
__ptext21 401 0 CODE 0
__end_of_Init 5C5 0 CODE 0
__ptext12 3E1 0 CODE 0
__ptext22 349 0 CODE 0
__ptext13 304 0 CODE 0
__ptext23 2EA 0 CODE 0
__ptext14 67B 0 CODE 0
__ptext24 546 0 CODE 0
__ptext15 61B 0 CODE 0
__ptext25 310 0 CODE 0
__ptext16 74F 0 CODE 0
lcdEcho@text 2E 0 BANK0 1
__ptext26 35F 0 CODE 0
__CFG_BOREN$OFF 0 0 ABS 0
__ptext17 2FA 0 CODE 0
__ptext27 582 0 CODE 0
__end_of_lcdWriteChar 426 0 CODE 0
__ptext18 2E4 0 CODE 0
__CFG_PWRTE$OFF 0 0 ABS 0
__ptext19 322 0 CODE 0
__end_of_lcdEcho 335 0 CODE 0
__Hend_init 2 0 CODE 0
__Lend_init 0 0 CODE 0
___lldiv@divisor 20 0 BANK0 1
__size_of___lldiv 0 0 ABS 0
__end_of_lcdInit 74F 0 CODE 0
__size_of_esp8266_startConnection 0 0 ABS 0
esp8266_readResponse@continue_loop 47 0 BANK0 1
__size_of_lcdEcho 0 0 ABS 0
esp8266_readResponse@i_186 4C 0 BANK0 1
__Hreset_vec 0 0 CODE 0
__Lreset_vec 0 0 CODE 0
__end_of_esp8266_isStarted 4D6 0 CODE 0
_lcdWriteString 50B 0 CODE 0
strcmp@s1 25 0 BANK0 1
esp8266_readResponse@i_187 4E 0 BANK0 1
strcmp@s2 20 0 BANK0 1
__end_of_Initialize_ESP8266 3AA 0 CODE 0
_usartDataRead 2FA 0 CODE 0
__size_of_usartDataReady 0 0 ABS 0
_serverResponseCallback 335 0 CODE 0
intlevel0 0 0 ENTRY 0
__CFG_WDTE$OFF 0 0 ABS 0
intlevel1 0 0 ENTRY 0
intlevel2 0 0 ENTRY 0
intlevel3 0 0 ENTRY 0
esp8266_startConnection@ip 55 0 BANK0 1
intlevel4 0 0 ENTRY 0
intlevel5 0 0 ENTRY 0
lcdSetCursor@a 2A 0 BANK0 1
__size_of_lcdWriteChar 0 0 ABS 0
lcdSetCursor@temp 29 0 BANK0 1
__HcstackCOMMON 0 0 ABS 0
__LcstackCOMMON 0 0 ABS 0
__pcstackCOMMON 0 0 COMMON 1
esp8266_readResponse@response 33 0 BANK0 1
start_initialization 7EF 0 CODE 0
___lldiv@quotient 29 0 BANK0 1
__size_of_usartWriteText 0 0 ABS 0
__Hmaintext 0 0 ABS 0
__Lmaintext 0 0 ABS 0
__pmaintext 5C5 0 CODE 0
__end_of_esp8266_readResponse 7EF 0 CODE 0
__size_of_lcdStrobe 0 0 ABS 0
__size_of_serverResponseCallback 0 0 ABS 0
__initialization 7EF 0 CODE 0
__end_of_lcdWriteString 546 0 CODE 0
usartWriteText@i 21 0 BANK0 1
__size_of_lcdInit 0 0 ABS 0
__stringbase 11 0 STRING 0
_Initialize_ESP8266 390 0 CODE 0
__end_ofesp8266_readResponse@responses 14 0 STRING 0
__CFG_CP$OFF 0 0 ABS 0
__end_of_usartDataRead 304 0 CODE 0
__size_of_strcmp 0 0 ABS 0
serverResponseCallback@response 27 0 BANK0 1
lcdPort@a 20 0 BANK0 1
___lldiv@dividend 24 0 BANK0 1
%segments
reset_vec 0 3 CODE 0 0
cinit FDE FFF CODE FDE 0
config 400E 400F CONFIG 400E 0
cstackBANK0 20 75 BANK0 20 1
strings 4 1AB STRING 4 0
text16 E9E FDD CODE E9E 0
text4 DCA E9D CODE DCA 0
text14 CF6 DC9 CODE CF6 0
text15 C36 CF5 CODE C36 0
maintext B8A C35 CODE B8A 0
text27 B04 B89 CODE B04 0
text24 A8C B03 CODE A8C 0
text20 A16 A8B CODE A16 0
text9 9AC A15 CODE 9AC 0
text10 94C 9AB CODE 94C 0
text5 8F2 94B CODE 8F2 0
text2 89E 8F1 CODE 89E 0
text3 84C 89D CODE 84C 0
text21 802 84B CODE 802 0
text12 7C2 801 CODE 7C2 0
text7 78A 7C1 CODE 78A 0
text6 754 789 CODE 754 0
text11 720 753 CODE 720 0
text8 6EE 71F CODE 6EE 0
text26 6BE 6ED CODE 6BE 0
text22 692 6BD CODE 692 0
text1 66A 691 CODE 66A 0
text19 644 669 CODE 644 0
text25 620 643 CODE 620 0
text13 608 61F CODE 608 0
text17 5F4 607 CODE 5F4 0
clrtext 5E4 5F3 CODE 5E4 0
text23 5D4 5E3 CODE 5D4 0
text18 5C8 5D3 CODE 5C8 0
idataBANK0 5C4 5C7 CODE 5C4 0
%locals
dist/default/production\project.X.production.obj
C:\Users\Tom\AppData\Local\Temp\sb9c.
954 7EF 0 CODE 0
957 7EF 0 CODE 0
983 7EF 0 CODE 0
984 7F2 0 CODE 0
985 7F3 0 CODE 0
986 7F6 0 CODE 0
1005 7F7 0 CODE 0
1006 7F8 0 CODE 0
1007 7F9 0 CODE 0
1008 7FA 0 CODE 0
1009 7FB 0 CODE 0
1015 7FD 0 CODE 0
1017 7FD 0 CODE 0
1018 7FE 0 CODE 0
992 2F2 0 CODE 0
993 2F2 0 CODE 0
994 2F3 0 CODE 0
995 2F3 0 CODE 0
996 2F4 0 CODE 0
997 2F5 0 CODE 0
998 2F6 0 CODE 0
999 2F7 0 CODE 0
1000 2F8 0 CODE 0
1001 2F9 0 CODE 0
main.c
41 5C5 0 CODE 0
42 5C5 0 CODE 0
43 5C8 0 CODE 0
44 5CB 0 CODE 0
46 5CE 0 CODE 0
49 5D1 0 CODE 0
50 5DA 0 CODE 0
52 5E0 0 CODE 0
53 5E3 0 CODE 0
55 5EA 0 CODE 0
57 5F8 0 CODE 0
58 605 0 CODE 0
60 607 0 CODE 0
63 610 0 CODE 0
66 617 0 CODE 0
93 335 0 CODE 0
94 338 0 CODE 0
95 346 0 CODE 0
C:\Program Files (x86)\Microchip\xc8\v1.44\sources\common\strcmp.c
33 44F 0 CODE 0
37 452 0 CODE 0
38 453 0 CODE 0
39 457 0 CODE 0
37 45B 0 CODE 0
41 473 0 CODE 0
common.c
14 426 0 CODE 0
15 426 0 CODE 0
16 435 0 CODE 0
17 444 0 CODE 0
15 448 0 CODE 0
lcd.c
78 6E5 0 CODE 0
79 6E5 0 CODE 0
80 6F3 0 CODE 0
81 6F7 0 CODE 0
83 702 0 CODE 0
84 706 0 CODE 0
85 70A 0 CODE 0
87 70E 0 CODE 0
89 71D 0 CODE 0
90 721 0 CODE 0
92 725 0 CODE 0
94 734 0 CODE 0
95 738 0 CODE 0
97 73C 0 CODE 0
99 747 0 CODE 0
100 74B 0 CODE 0
101 74E 0 CODE 0
esp8266.c
79 479 0 CODE 0
82 479 0 CODE 0
83 480 0 CODE 0
86 482 0 CODE 0
87 489 0 CODE 0
90 48B 0 CODE 0
92 494 0 CODE 0
93 49B 0 CODE 0
96 4A2 0 CODE 0
69 3AA 0 CODE 0
70 3AD 0 CODE 0
72 3AE 0 CODE 0
75 3BC 0 CODE 0
76 3C2 0 CODE 0
100 3C5 0 CODE 0
101 3C8 0 CODE 0
104 3CC 0 CODE 0
109 3D2 0 CODE 0
111 3D8 0 CODE 0
139 377 0 CODE 0
140 377 0 CODE 0
141 37E 0 CODE 0
140 383 0 CODE 0
144 38B 0 CODE 0
146 38E 0 CODE 0
114 4D6 0 CODE 0
115 4D9 0 CODE 0
119 4DA 0 CODE 0
121 4E2 0 CODE 0
122 4E6 0 CODE 0
124 4E8 0 CODE 0
126 4F0 0 CODE 0
130 4FA 0 CODE 0
131 506 0 CODE 0
123 50A 0 CODE 0
54 4A6 0 CODE 0
55 4A6 0 CODE 0
57 4AA 0 CODE 0
58 4B0 0 CODE 0
61 4B2 0 CODE 0
62 4B5 0 CODE 0
63 4BC 0 CODE 0
64 4C5 0 CODE 0
66 4D4 0 CODE 0
20 390 0 CODE 0
22 390 0 CODE 0
25 39F 0 CODE 0
50 3A3 0 CODE 0
51 3A7 0 CODE 0
52 3A9 0 CODE 0
usart.c
77 3E1 0 CODE 0
78 3E4 0 CODE 0
79 3EF 0 CODE 0
78 3F8 0 CODE 0
71 304 0 CODE 0
72 307 0 CODE 0
74 30B 0 CODE 0
75 30F 0 CODE 0
18 67B 0 CODE 0
20 67B 0 CODE 0
21 680 0 CODE 0
22 6AB 0 CODE 0
23 6AC 0 CODE 0
24 6AD 0 CODE 0
25 6D8 0 CODE 0
29 6D9 0 CODE 0
30 6DA 0 CODE 0
33 6DB 0 CODE 0
34 6DE 0 CODE 0
35 6DF 0 CODE 0
37 6E0 0 CODE 0
38 6E3 0 CODE 0
39 6E4 0 CODE 0
C:\Program Files (x86)\Microchip\xc8\v1.44\sources\common\lldiv.c
6 61B 0 CODE 0
14 61B 0 CODE 0
15 625 0 CODE 0
16 62B 0 CODE 0
17 62D 0 CODE 0
18 62F 0 CODE 0
19 638 0 CODE 0
17 63C 0 CODE 0
22 63D 0 CODE 0
23 646 0 CODE 0
24 656 0 CODE 0
25 664 0 CODE 0
27 665 0 CODE 0
28 66E 0 CODE 0
30 672 0 CODE 0
esp8266.c
149 74F 0 CODE 0
150 74F 0 CODE 0
152 755 0 CODE 0
156 759 0 CODE 0
157 75E 0 CODE 0
156 763 0 CODE 0
160 76B 0 CODE 0
164 76C 0 CODE 0
166 76E 0 CODE 0
167 771 0 CODE 0
169 779 0 CODE 0
170 781 0 CODE 0
171 786 0 CODE 0
170 78B 0 CODE 0
174 793 0 CODE 0
175 794 0 CODE 0
176 795 0 CODE 0
177 79D 0 CODE 0
180 7A1 0 CODE 0
181 7A6 0 CODE 0
182 7B8 0 CODE 0
183 7BF 0 CODE 0
185 7CD 0 CODE 0
186 7D6 0 CODE 0
187 7DA 0 CODE 0
188 7DB 0 CODE 0
192 7DC 0 CODE 0
180 7E0 0 CODE 0
199 7E5 0 CODE 0
202 7EB 0 CODE 0
usart.c
54 2FA 0 CODE 0
55 2FA 0 CODE 0
57 300 0 CODE 0
46 2E4 0 CODE 0
47 2E4 0 CODE 0
lcd.c
175 322 0 CODE 0
176 322 0 CODE 0
177 325 0 CODE 0
178 32C 0 CODE 0
179 334 0 CODE 0
132 50B 0 CODE 0
135 50B 0 CODE 0
136 526 0 CODE 0
135 53D 0 CODE 0
115 401 0 CODE 0
116 404 0 CODE 0
119 405 0 CODE 0
120 40A 0 CODE 0
122 416 0 CODE 0
123 41A 0 CODE 0
124 41D 0 CODE 0
125 423 0 CODE 0
126 425 0 CODE 0
144 349 0 CODE 0
147 34C 0 CODE 0
148 34F 0 CODE 0
149 352 0 CODE 0
150 356 0 CODE 0
153 35B 0 CODE 0
154 35E 0 CODE 0
106 2EA 0 CODE 0
107 2EA 0 CODE 0
108 2EE 0 CODE 0
109 2F1 0 CODE 0
58 546 0 CODE 0
60 549 0 CODE 0
61 54E 0 CODE 0
63 55A 0 CODE 0
65 55B 0 CODE 0
66 55F 0 CODE 0
67 562 0 CODE 0
69 56D 0 CODE 0
70 573 0 CODE 0
71 576 0 CODE 0
72 581 0 CODE 0
22 310 0 CODE 0
23 310 0 CODE 0
24 313 0 CODE 0
25 31E 0 CODE 0
26 321 0 CODE 0
32 35F 0 CODE 0
33 362 0 CODE 0
34 364 0 CODE 0
35 366 0 CODE 0
36 366 0 CODE 0
38 367 0 CODE 0
39 369 0 CODE 0
40 36B 0 CODE 0
41 36B 0 CODE 0
43 36C 0 CODE 0
44 36E 0 CODE 0
45 370 0 CODE 0
46 370 0 CODE 0
48 371 0 CODE 0
49 373 0 CODE 0
50 375 0 CODE 0
51 375 0 CODE 0
main.c
70 582 0 CODE 0
72 582 0 CODE 0
73 585 0 CODE 0
74 586 0 CODE 0
75 587 0 CODE 0
76 588 0 CODE 0
77 589 0 CODE 0
80 58A 0 CODE 0
81 58B 0 CODE 0
82 58C 0 CODE 0
83 58F 0 CODE 0
85 590 0 CODE 0
86 59D 0 CODE 0
87 5AC 0 CODE 0
85 5B0 0 CODE 0
90 5C1 0 CODE 0
91 5C4 0 CODE 0
