_RC0 38 0 ABS 0
__S0 2008 0 ABS 0
__S1 26 0 ABS 0
__S2 0 0 ABS 0
_GIE 5F 0 ABS 0
_ISR 17 0 CODE 0
__Hintentry 11 0 CODE 0
__Lintentry 4 0 CODE 0
__CFG_BOREN$ON 0 0 ABS 0
__pintentry 4 0 CODE 0
__CFG_PWRTE$ON 0 0 ABS 0
_RBIE 5B 0 ABS 0
_RBIF 58 0 ABS 0
_main 31 0 CODE 0
___sp 0 0 STACK 2
btemp 7E 0 ABS 0
start 11 0 CODE 0
reset_vec 0 0 CODE 0
_PORTB 6 0 ABS 0
wtemp0 7E 0 ABS 0
interrupt_function 4 0 CODE 0
__Hconfig 2008 0 CONFIG 0
__Lconfig 2007 0 CONFIG 0
__Hram 0 0 ABS 0
__Lram 0 0 ABS 0
__end_of_ISR 31 0 CODE 0
__Hfunctab 0 0 CODE 0
_TRISC0 438 0 ABS 0
__Lfunctab 0 0 CODE 0
__Hcommon 0 0 ABS 0
__Lcommon 0 0 ABS 0
__Heeprom_data 0 0 EEDATA 3
__Leeprom_data 0 0 EEDATA 3
___int_sp 0 0 STACK 2
__Habs1 0 0 ABS 0
__Labs1 0 0 ABS 0
__Hsfr0 0 0 ABS 0
__Lsfr0 0 0 ABS 0
__Hsfr1 0 0 ABS 0
__Lsfr1 0 0 ABS 0
__Hsfr2 0 0 ABS 0
__Lsfr2 0 0 ABS 0
__Hsfr3 0 0 ABS 0
__Lsfr3 0 0 ABS 0
__Hcode 0 0 ABS 0
__Lcode 0 0 ABS 0
stackhi 0 0 ABS 0
__HcstackBANK0 0 0 ABS 0
__LcstackBANK0 0 0 ABS 0
__pcstackBANK0 20 0 BANK0 1
stacklo 0 0 ABS 0
saved_w 7E 0 ABS 0
__Hinit 11 0 CODE 0
__Linit 11 0 CODE 0
__end_of_main 38 0 CODE 0
__Htext 0 0 ABS 0
__Ltext 0 0 ABS 0
end_of_initialization 14 0 CODE 0
__size_of_ISR 0 0 ABS 0
__Hstrings 0 0 ABS 0
__Lstrings 0 0 ABS 0
__Hbank0 0 0 ABS 0
__Lbank0 0 0 ABS 0
__Hbank1 0 0 ABS 0
__Lbank1 0 0 ABS 0
__Hbank2 0 0 BANK2 1
__Lbank2 0 0 BANK2 1
__Hbank3 0 0 BANK3 1
__Lbank3 0 0 BANK3 1
___latbits 1 0 ABS 0
__Hpowerup 0 0 CODE 0
__Lpowerup 0 0 CODE 0
__ptext1 17 0 CODE 0
__Hclrtext 0 0 ABS 0
__Lclrtext 0 0 ABS 0
__end_of__initialization 14 0 CODE 0
_PORB_LastInfo 25 0 BANK0 1
__Hidloc 0 0 IDLOC 0
__Lidloc 0 0 IDLOC 0
__Hstack 0 0 STACK 2
__Lstack 0 0 STACK 2
__Hspace_0 2008 0 ABS 0
__Lspace_0 0 0 ABS 0
__Hspace_1 26 0 ABS 0
__Lspace_1 0 0 ABS 0
__Hspace_2 0 0 ABS 0
__Lspace_2 0 0 ABS 0
__Hcinit 17 0 CODE 0
__Lcinit 13 0 CODE 0
__CFG_FOSC$HS 0 0 ABS 0
__Hspace_3 0 0 ABS 0
__Lspace_3 0 0 ABS 0
__size_of_main 0 0 ABS 0
__HbssBANK0 0 0 ABS 0
__LbssBANK0 0 0 ABS 0
__pbssBANK0 25 0 BANK0 1
__Hend_init 13 0 CODE 0
__Lend_init 11 0 CODE 0
__Hreset_vec 2 0 CODE 0
__Lreset_vec 0 0 CODE 0
intlevel0 0 0 CODE 0
__CFG_WDTE$OFF 0 0 ABS 0
intlevel1 0 0 CODE 0
intlevel2 0 0 CODE 0
intlevel3 0 0 CODE 0
intlevel4 0 0 CODE 0
intlevel5 0 0 CODE 0
__HcstackCOMMON 0 0 ABS 0
__LcstackCOMMON 0 0 ABS 0
__pcstackCOMMON 0 0 COMMON 1
start_initialization 13 0 CODE 0
__Hmaintext 0 0 ABS 0
__Lmaintext 0 0 ABS 0
__pmaintext 31 0 CODE 0
__initialization 13 0 CODE 0
__CFG_CP$OFF 0 0 ABS 0
%segments
reset_vec 0 3 CODE 0 0
intentry 8 6F CODE 8 0
config 400E 400F CONFIG 400E 0
cstackBANK0 20 25 BANK0 20 1
%locals
dist/default/production\portb-interrupt.X.production.obj
C:\Users\Tom\AppData\Local\Temp\s654.
159 13 0 CODE 0
162 13 0 CODE 0
173 13 0 CODE 0
179 14 0 CODE 0
181 14 0 CODE 0
182 15 0 CODE 0
main.c
19 31 0 CODE 0
20 31 0 CODE 0
22 34 0 CODE 0
23 35 0 CODE 0
24 36 0 CODE 0
26 37 0 CODE 0
31 17 0 CODE 0
33 17 0 CODE 0
35 1F 0 CODE 0
36 23 0 CODE 0
39 24 0 CODE 0
41 26 0 CODE 0
31 4 0 CODE 0
